[
  {
    "id": 1,
    "name": "Leeds",
    "created_at": "2018-09-22 22:01:00",
    "updated_at": "2018-03-22 22:00:56"
  },
  {
    "id": 2,
    "name": "Halifax",
    "created_at": "2018-09-22 22:01:00",
    "updated_at": "2018-03-22 22:00:56"
  },
  {
    "id": 3,
    "name": "York",
    "created_at": "2018-09-22 22:01:00",
    "updated_at": "2018-03-22 22:00:56"
  },
  {
    "id": 4,
    "name": "Hull",
    "created_at": "2018-09-22 22:01:00",
    "updated_at": "2018-03-22 22:00:56"
  },
  {
    "id": 5,
    "name": "Huddersfield",
    "created_at": "2018-09-22 22:01:00",
    "updated_at": "2018-03-22 22:00:56"
  },
  {
    "id": 6,
    "name": "Sheffield",
    "created_at": "2018-09-22 22:01:00",
    "updated_at": "2018-03-22 22:00:56"
  }
]